…
[112] bayestestR_0.13.1       fontquiver_0.2.1        sjstats_0.18.2         
[115] hms_1.1.3               future_1.32.0           gfonts_0.2.0           
[118] shiny_1.7.4             gt_0.9.0                officer_0.6.2          
[121] DiceDesign_1.9         
> 
> # unpack T.1 
> 
> names(T.1)
[1] "cvfit" "xnew"  "ySurv"
> cvfit1 <- T.1[["cvfit"]]
> x  <- T.1[["xnew"]]
> ySurv <- T.1[["ySurv"]]
> td_cvfit1 <- mytidy_Surv(cvfit1, x, ySurv)
> td_cvfit1
# A tibble: 63 × 15
    step lambda estimate std.error conf.low conf.high nzero mincv dev.ratio
   <int>  <dbl>    <dbl>     <dbl>    <dbl>     <dbl> <int> <chr>     <dbl>
 1     1 0.143      9.88     0.401     9.48      10.3     3 <1se      0.185
 2     2 0.130      9.84     0.390     9.45      10.2     4 +         0.193
 3     3 0.119      9.78     0.391     9.39      10.2     4 +         0.200
 4     4 0.108      9.73     0.401     9.32      10.1     4 +         0.205
 5     5 0.0986     9.69     0.413     9.28      10.1     5 +         0.210
 6     6 0.0899     9.67     0.426     9.24      10.1     6 +         0.215
 7     7 0.0819     9.66     0.440     9.22      10.1     6 +         0.221
 8     8 0.0746     9.65     0.454     9.20      10.1     7 +         0.226
 9     9 0.0680     9.64     0.465     9.18      10.1     8 +         0.231
10    10 0.0619     9.63     0.477     9.16      10.1     8 +         0.235
# ℹ 53 more rows
# ℹ 6 more variables: df <int>, beta <list>, Cindex <dbl>, AIC <dbl>,
#   BIC <dbl>, AICc <dbl>
# ℹ Use `print(n = ...)` to see more rows
…
